<?xml version="1.0" encoding="UTF-8" standalone="no"?><svg xmlns="http://www.w3.org/2000/svg" xmlns:xlink="http://www.w3.org/1999/xlink" contentScriptType="application/ecmascript" contentStyleType="text/css" height="284px" preserveAspectRatio="none" style="width:323px;height:284px;" version="1.1" viewBox="0 0 323 284" width="323px" zoomAndPan="magnify"><defs><filter height="300%" id="ffkhgaqyrnto" width="300%" x="-1" y="-1"><feGaussianBlur result="blurOut" stdDeviation="2.0"/><feColorMatrix in="blurOut" result="blurOut2" type="matrix" values="0 0 0 0 0 0 0 0 0 0 0 0 0 0 0 0 0 0 .4 0"/><feOffset dx="4.0" dy="4.0" in="blurOut2" result="blurOut3"/><feBlend in="SourceGraphic" in2="blurOut3" mode="normal"/></filter></defs><g><!--MD5=[4e13963c9dc916a21a8436ef39422b32]
class Component--><rect fill="#FEFECE" filter="url(#ffkhgaqyrnto)" height="99.2188" id="Component" style="stroke: #A80036; stroke-width: 1.5;" width="174" x="130" y="7"/><ellipse cx="176.75" cy="23" fill="#B4A7E5" rx="11" ry="11" style="stroke: #A80036; stroke-width: 1.0;"/><path d="M172.6719,18.7656 L172.6719,16.6094 L180.0625,16.6094 L180.0625,18.7656 L177.5938,18.7656 L177.5938,26.8438 L180.0625,26.8438 L180.0625,29 L172.6719,29 L172.6719,26.8438 L175.1406,26.8438 L175.1406,18.7656 L172.6719,18.7656 Z "/><text fill="#000000" font-family="sans-serif" font-size="12" font-style="italic" lengthAdjust="spacingAndGlyphs" textLength="72" x="197.25" y="27.1543">Component</text><line style="stroke: #A80036; stroke-width: 1.5;" x1="131" x2="303" y1="39" y2="39"/><line style="stroke: #A80036; stroke-width: 1.5;" x1="131" x2="303" y1="47" y2="47"/><ellipse cx="141" cy="58" fill="#84BE84" rx="3" ry="3" style="stroke: #038048; stroke-width: 1.0;"/><text fill="#000000" font-family="sans-serif" font-size="11" lengthAdjust="spacingAndGlyphs" textLength="62" x="150" y="61.2104">operation()</text><ellipse cx="141" cy="70.8047" fill="#84BE84" rx="3" ry="3" style="stroke: #038048; stroke-width: 1.0;"/><text fill="#000000" font-family="sans-serif" font-size="11" lengthAdjust="spacingAndGlyphs" textLength="134" x="150" y="74.0151">add(in c : Component)()</text><ellipse cx="141" cy="83.6094" fill="#84BE84" rx="3" ry="3" style="stroke: #038048; stroke-width: 1.0;"/><text fill="#000000" font-family="sans-serif" font-size="11" lengthAdjust="spacingAndGlyphs" textLength="148" x="150" y="86.8198">remove(in c : Component)</text><ellipse cx="141" cy="96.4141" fill="#84BE84" rx="3" ry="3" style="stroke: #038048; stroke-width: 1.0;"/><text fill="#000000" font-family="sans-serif" font-size="11" lengthAdjust="spacingAndGlyphs" textLength="97" x="150" y="99.6245">getChild(in i : int)</text><!--MD5=[3670a9b67b8a752f6e42da25dea7e2da]
class Leaf--><rect fill="#FEFECE" filter="url(#ffkhgaqyrnto)" height="60.8047" id="Leaf" style="stroke: #A80036; stroke-width: 1.5;" width="88" x="7" y="185"/><ellipse cx="35.5" cy="201" fill="#ADD1B2" rx="11" ry="11" style="stroke: #A80036; stroke-width: 1.0;"/><path d="M38.4688,206.6406 Q37.8906,206.9375 37.25,207.0781 Q36.6094,207.2344 35.9063,207.2344 Q33.4063,207.2344 32.0781,205.5938 Q30.7656,203.9375 30.7656,200.8125 Q30.7656,197.6875 32.0781,196.0313 Q33.4063,194.375 35.9063,194.375 Q36.6094,194.375 37.25,194.5313 Q37.9063,194.6875 38.4688,194.9844 L38.4688,197.7031 Q37.8438,197.125 37.25,196.8594 Q36.6563,196.5781 36.0313,196.5781 Q34.6875,196.5781 34,197.6563 Q33.3125,198.7188 33.3125,200.8125 Q33.3125,202.9063 34,203.9844 Q34.6875,205.0469 36.0313,205.0469 Q36.6563,205.0469 37.25,204.7813 Q37.8438,204.5 38.4688,203.9219 L38.4688,206.6406 Z "/><text fill="#000000" font-family="sans-serif" font-size="12" lengthAdjust="spacingAndGlyphs" textLength="26" x="52.5" y="205.1543">Leaf</text><line style="stroke: #A80036; stroke-width: 1.5;" x1="8" x2="94" y1="217" y2="217"/><line style="stroke: #A80036; stroke-width: 1.5;" x1="8" x2="94" y1="225" y2="225"/><ellipse cx="18" cy="236" fill="#84BE84" rx="3" ry="3" style="stroke: #038048; stroke-width: 1.0;"/><text fill="#000000" font-family="sans-serif" font-size="11" lengthAdjust="spacingAndGlyphs" textLength="62" x="27" y="239.2104">operation()</text><!--MD5=[73d251a377f173325f21997c77c25ad9]
class Composite--><rect fill="#FEFECE" filter="url(#ffkhgaqyrnto)" height="99.2188" id="Composite" style="stroke: #A80036; stroke-width: 1.5;" width="174" x="130" y="166"/><ellipse cx="179.75" cy="182" fill="#ADD1B2" rx="11" ry="11" style="stroke: #A80036; stroke-width: 1.0;"/><path d="M182.7188,187.6406 Q182.1406,187.9375 181.5,188.0781 Q180.8594,188.2344 180.1563,188.2344 Q177.6563,188.2344 176.3281,186.5938 Q175.0156,184.9375 175.0156,181.8125 Q175.0156,178.6875 176.3281,177.0313 Q177.6563,175.375 180.1563,175.375 Q180.8594,175.375 181.5,175.5313 Q182.1563,175.6875 182.7188,175.9844 L182.7188,178.7031 Q182.0938,178.125 181.5,177.8594 Q180.9063,177.5781 180.2813,177.5781 Q178.9375,177.5781 178.25,178.6563 Q177.5625,179.7188 177.5625,181.8125 Q177.5625,183.9063 178.25,184.9844 Q178.9375,186.0469 180.2813,186.0469 Q180.9063,186.0469 181.5,185.7813 Q182.0938,185.5 182.7188,184.9219 L182.7188,187.6406 Z "/><text fill="#000000" font-family="sans-serif" font-size="12" lengthAdjust="spacingAndGlyphs" textLength="66" x="200.25" y="186.1543">Composite</text><line style="stroke: #A80036; stroke-width: 1.5;" x1="131" x2="303" y1="198" y2="198"/><line style="stroke: #A80036; stroke-width: 1.5;" x1="131" x2="303" y1="206" y2="206"/><ellipse cx="141" cy="217" fill="#84BE84" rx="3" ry="3" style="stroke: #038048; stroke-width: 1.0;"/><text fill="#000000" font-family="sans-serif" font-size="11" lengthAdjust="spacingAndGlyphs" textLength="62" x="150" y="220.2104">operation()</text><ellipse cx="141" cy="229.8047" fill="#84BE84" rx="3" ry="3" style="stroke: #038048; stroke-width: 1.0;"/><text fill="#000000" font-family="sans-serif" font-size="11" lengthAdjust="spacingAndGlyphs" textLength="134" x="150" y="233.0151">add(in c : Component)()</text><ellipse cx="141" cy="242.6094" fill="#84BE84" rx="3" ry="3" style="stroke: #038048; stroke-width: 1.0;"/><text fill="#000000" font-family="sans-serif" font-size="11" lengthAdjust="spacingAndGlyphs" textLength="148" x="150" y="245.8198">remove(in c : Component)</text><ellipse cx="141" cy="255.4141" fill="#84BE84" rx="3" ry="3" style="stroke: #038048; stroke-width: 1.0;"/><text fill="#000000" font-family="sans-serif" font-size="11" lengthAdjust="spacingAndGlyphs" textLength="97" x="150" y="258.6245">getChild(in i : int)</text><!--MD5=[2b8a550542006e17ac803e491d55f4e4]
reverse link Component to Leaf--><path d="M150.4005,120.291 C127.1923,142.5206 102.2023,166.4568 83.0848,184.7681 " fill="none" id="Component&lt;-Leaf" style="stroke: #A80036; stroke-width: 1.0;"/><polygon fill="none" points="145.6466,115.1515,164.932,106.3723,155.3306,125.2619,145.6466,115.1515" style="stroke: #A80036; stroke-width: 1.0;"/><!--MD5=[d08e8c878fbc40ecc1404728b0bb96b1]
reverse link Component to Composite--><path d="M204.3292,126.6225 C204.1053,139.8282 204.3563,153.3839 205.0823,165.8046 " fill="none" id="Component&lt;-Composite" style="stroke: #A80036; stroke-width: 1.0;"/><polygon fill="none" points="197.3435,126.1023,205.072,106.3723,211.334,126.6155,197.3435,126.1023" style="stroke: #A80036; stroke-width: 1.0;"/><!--MD5=[4891deb3fed738231c8228a6b6958427]
link Component to Composite--><path d="M229.6297,106.3723 C230.53,121.0237 230.7318,137.2418 230.2351,152.5956 " fill="none" id="Component-&gt;Composite" style="stroke: #A80036; stroke-width: 1.0;"/><polygon fill="#A80036" points="229.6188,165.8046,233.8941,159.9976,230.1782,153.8176,225.9028,159.6247,229.6188,165.8046" style="stroke: #A80036; stroke-width: 1.0;"/><!--MD5=[ac1f62e48aa941ad98f4a9fc2834b32a]
@startuml

interface Component {
    + operation()
    + add(in c : Component)()
    + remove(in c : Component)
    + getChild(in i : int)
}

class Leaf {
    + operation()
}

class Composite {
    + operation()
    + add(in c : Component)()
    + remove(in c : Component)
    + getChild(in i : int)
}

Component <|- - Leaf
Component <|- - Composite
Component - -* Composite

@enduml

PlantUML version 1.2020.15(Sun Jun 28 13:39:45 CEST 2020)
(GPL source distribution)
Java Runtime: OpenJDK Runtime Environment
JVM: OpenJDK 64-Bit Server VM
Default Encoding: UTF-8
Language: en
Country: US
--></g></svg>