<?xml version="1.0" encoding="UTF-8" standalone="no"?><svg xmlns="http://www.w3.org/2000/svg" xmlns:xlink="http://www.w3.org/1999/xlink" contentScriptType="application/ecmascript" contentStyleType="text/css" height="204px" preserveAspectRatio="none" style="width:153px;height:204px;" version="1.1" viewBox="0 0 153 204" width="153px" zoomAndPan="magnify"><defs><filter height="300%" id="fs4p3e26u2czz" width="300%" x="-1" y="-1"><feGaussianBlur result="blurOut" stdDeviation="2.0"/><feColorMatrix in="blurOut" result="blurOut2" type="matrix" values="0 0 0 0 0 0 0 0 0 0 0 0 0 0 0 0 0 0 .4 0"/><feOffset dx="4.0" dy="4.0" in="blurOut2" result="blurOut3"/><feBlend in="SourceGraphic" in2="blurOut3" mode="normal"/></filter></defs><g><!--MD5=[fb3a36e6acd69457a12dcaa984c78192]
class AbstractClass--><rect fill="#FEFECE" filter="url(#fs4p3e26u2czz)" height="65.6094" id="AbstractClass" style="stroke: #A80036; stroke-width: 1.5;" width="125" x="9" y="7"/><ellipse cx="27.15" cy="23" fill="#ADD1B2" rx="11" ry="11" style="stroke: #A80036; stroke-width: 1.0;"/><path d="M30.1188,28.6406 Q29.5406,28.9375 28.9,29.0781 Q28.2594,29.2344 27.5563,29.2344 Q25.0563,29.2344 23.7281,27.5938 Q22.4156,25.9375 22.4156,22.8125 Q22.4156,19.6875 23.7281,18.0313 Q25.0563,16.375 27.5563,16.375 Q28.2594,16.375 28.9,16.5313 Q29.5563,16.6875 30.1188,16.9844 L30.1188,19.7031 Q29.4938,19.125 28.9,18.8594 Q28.3063,18.5781 27.6813,18.5781 Q26.3375,18.5781 25.65,19.6563 Q24.9625,20.7188 24.9625,22.8125 Q24.9625,24.9063 25.65,25.9844 Q26.3375,27.0469 27.6813,27.0469 Q28.3063,27.0469 28.9,26.7813 Q29.4938,26.5 30.1188,25.9219 L30.1188,28.6406 Z "/><text fill="#000000" font-family="sans-serif" font-size="12" lengthAdjust="spacingAndGlyphs" textLength="86" x="41.85" y="27.1543">AbstractClass</text><line style="stroke: #A80036; stroke-width: 1.5;" x1="10" x2="133" y1="39" y2="39"/><ellipse cx="20" cy="50" fill="#84BE84" rx="3" ry="3" style="stroke: #038048; stroke-width: 1.0;"/><text fill="#000000" font-family="sans-serif" font-size="11" lengthAdjust="spacingAndGlyphs" textLength="99" x="29" y="53.2104">templateMethod()</text><polygon fill="#FFFF44" points="20,57.8047,24,61.8047,20,65.8047,16,61.8047" style="stroke: #B38D22; stroke-width: 1.0;"/><text fill="#000000" font-family="sans-serif" font-size="11" lengthAdjust="spacingAndGlyphs" textLength="70" x="29" y="66.0151">subMethod()</text><!--MD5=[4884b7d89b2ac96f05fa61140638e851]
class ConcreteClass--><rect fill="#FEFECE" filter="url(#fs4p3e26u2czz)" height="52.8047" id="ConcreteClass" style="stroke: #A80036; stroke-width: 1.5;" width="122" x="10.5" y="133"/><ellipse cx="25.5" cy="149" fill="#ADD1B2" rx="11" ry="11" style="stroke: #A80036; stroke-width: 1.0;"/><path d="M28.4688,154.6406 Q27.8906,154.9375 27.25,155.0781 Q26.6094,155.2344 25.9063,155.2344 Q23.4063,155.2344 22.0781,153.5938 Q20.7656,151.9375 20.7656,148.8125 Q20.7656,145.6875 22.0781,144.0313 Q23.4063,142.375 25.9063,142.375 Q26.6094,142.375 27.25,142.5313 Q27.9063,142.6875 28.4688,142.9844 L28.4688,145.7031 Q27.8438,145.125 27.25,144.8594 Q26.6563,144.5781 26.0313,144.5781 Q24.6875,144.5781 24,145.6563 Q23.3125,146.7188 23.3125,148.8125 Q23.3125,150.9063 24,151.9844 Q24.6875,153.0469 26.0313,153.0469 Q26.6563,153.0469 27.25,152.7813 Q27.8438,152.5 28.4688,151.9219 L28.4688,154.6406 Z "/><text fill="#000000" font-family="sans-serif" font-size="12" lengthAdjust="spacingAndGlyphs" textLength="90" x="39.5" y="153.1543">ConcreteClass</text><line style="stroke: #A80036; stroke-width: 1.5;" x1="11.5" x2="131.5" y1="165" y2="165"/><ellipse cx="21.5" cy="176" fill="#84BE84" rx="3" ry="3" style="stroke: #038048; stroke-width: 1.0;"/><text fill="#000000" font-family="sans-serif" font-size="11" lengthAdjust="spacingAndGlyphs" textLength="70" x="30.5" y="179.2104">subMethod()</text><!--MD5=[68447c77ffc279caacb51767c9698d83]
reverse link AbstractClass to ConcreteClass--><path d="M71.5,93.3221 C71.5,107.0017 71.5,121.136 71.5,132.812 " fill="none" id="AbstractClass&lt;-ConcreteClass" style="stroke: #A80036; stroke-width: 1.0;"/><polygon fill="none" points="64.5001,93.2874,71.5,73.2874,78.5001,93.2874,64.5001,93.2874" style="stroke: #A80036; stroke-width: 1.0;"/><!--MD5=[cb5452dd35c91045d19f4ce643c1fcc5]
@startuml

class AbstractClass {
    + templateMethod()
    # subMethod()
}

class ConcreteClass {
    + subMethod()
}

hide empty members

AbstractClass <|- - ConcreteClass

@enduml

PlantUML version 1.2020.15(Sun Jun 28 13:39:45 CEST 2020)
(GPL source distribution)
Java Runtime: OpenJDK Runtime Environment
JVM: OpenJDK 64-Bit Server VM
Default Encoding: UTF-8
Language: en
Country: US
--></g></svg>