<?xml version="1.0" encoding="UTF-8" standalone="no"?><svg xmlns="http://www.w3.org/2000/svg" xmlns:xlink="http://www.w3.org/1999/xlink" contentScriptType="application/ecmascript" contentStyleType="text/css" height="325px" preserveAspectRatio="none" style="width:418px;height:325px;" version="1.1" viewBox="0 0 418 325" width="418px" zoomAndPan="magnify"><defs><filter height="300%" id="fub7cr21xiqd7" width="300%" x="-1" y="-1"><feGaussianBlur result="blurOut" stdDeviation="2.0"/><feColorMatrix in="blurOut" result="blurOut2" type="matrix" values="0 0 0 0 0 0 0 0 0 0 0 0 0 0 0 0 0 0 .4 0"/><feOffset dx="4.0" dy="4.0" in="blurOut2" result="blurOut3"/><feBlend in="SourceGraphic" in2="blurOut3" mode="normal"/></filter></defs><g><!--MD5=[ed6624c6556d5e7b1bd23032162d20b7]
class Client--><rect fill="#FEFECE" filter="url(#fub7cr21xiqd7)" height="48" id="Client" style="stroke: #A80036; stroke-width: 1.5;" width="67" x="7" y="24"/><ellipse cx="22" cy="40" fill="#ADD1B2" rx="11" ry="11" style="stroke: #A80036; stroke-width: 1.0;"/><path d="M24.9688,45.6406 Q24.3906,45.9375 23.75,46.0781 Q23.1094,46.2344 22.4063,46.2344 Q19.9063,46.2344 18.5781,44.5938 Q17.2656,42.9375 17.2656,39.8125 Q17.2656,36.6875 18.5781,35.0313 Q19.9063,33.375 22.4063,33.375 Q23.1094,33.375 23.75,33.5313 Q24.4063,33.6875 24.9688,33.9844 L24.9688,36.7031 Q24.3438,36.125 23.75,35.8594 Q23.1563,35.5781 22.5313,35.5781 Q21.1875,35.5781 20.5,36.6563 Q19.8125,37.7188 19.8125,39.8125 Q19.8125,41.9063 20.5,42.9844 Q21.1875,44.0469 22.5313,44.0469 Q23.1563,44.0469 23.75,43.7813 Q24.3438,43.5 24.9688,42.9219 L24.9688,45.6406 Z "/><text fill="#000000" font-family="sans-serif" font-size="12" lengthAdjust="spacingAndGlyphs" textLength="35" x="36" y="44.1543">Client</text><line style="stroke: #A80036; stroke-width: 1.5;" x1="8" x2="73" y1="56" y2="56"/><line style="stroke: #A80036; stroke-width: 1.5;" x1="8" x2="73" y1="64" y2="64"/><!--MD5=[002865b8e1cf1986e08dd6357225f5e0]
class ServiceA--><rect fill="#FEFECE" filter="url(#fub7cr21xiqd7)" height="48" id="ServiceA" style="stroke: #A80036; stroke-width: 1.5;" width="85" x="109" y="24"/><ellipse cx="124" cy="40" fill="#B4A7E5" rx="11" ry="11" style="stroke: #A80036; stroke-width: 1.0;"/><path d="M119.9219,35.7656 L119.9219,33.6094 L127.3125,33.6094 L127.3125,35.7656 L124.8438,35.7656 L124.8438,43.8438 L127.3125,43.8438 L127.3125,46 L119.9219,46 L119.9219,43.8438 L122.3906,43.8438 L122.3906,35.7656 L119.9219,35.7656 Z "/><text fill="#000000" font-family="sans-serif" font-size="12" font-style="italic" lengthAdjust="spacingAndGlyphs" textLength="53" x="138" y="44.1543">ServiceA</text><line style="stroke: #A80036; stroke-width: 1.5;" x1="110" x2="193" y1="56" y2="56"/><line style="stroke: #A80036; stroke-width: 1.5;" x1="110" x2="193" y1="64" y2="64"/><!--MD5=[a96680c9ffdc3faa83ca78a4a850a161]
class ServiceB--><rect fill="#FEFECE" filter="url(#fub7cr21xiqd7)" height="48" id="ServiceB" style="stroke: #A80036; stroke-width: 1.5;" width="85" x="257" y="24"/><ellipse cx="272" cy="40" fill="#B4A7E5" rx="11" ry="11" style="stroke: #A80036; stroke-width: 1.0;"/><path d="M267.9219,35.7656 L267.9219,33.6094 L275.3125,33.6094 L275.3125,35.7656 L272.8438,35.7656 L272.8438,43.8438 L275.3125,43.8438 L275.3125,46 L267.9219,46 L267.9219,43.8438 L270.3906,43.8438 L270.3906,35.7656 L267.9219,35.7656 Z "/><text fill="#000000" font-family="sans-serif" font-size="12" font-style="italic" lengthAdjust="spacingAndGlyphs" textLength="53" x="286" y="44.1543">ServiceB</text><line style="stroke: #A80036; stroke-width: 1.5;" x1="258" x2="341" y1="56" y2="56"/><line style="stroke: #A80036; stroke-width: 1.5;" x1="258" x2="341" y1="64" y2="64"/><!--MD5=[0b751655c2c1ffbfbd2272aa0ecbc96a]
class Injector--><rect fill="#FEFECE" filter="url(#fub7cr21xiqd7)" height="48" id="Injector" style="stroke: #A80036; stroke-width: 1.5;" width="79" x="112" y="258"/><ellipse cx="127" cy="274" fill="#ADD1B2" rx="11" ry="11" style="stroke: #A80036; stroke-width: 1.0;"/><path d="M129.9688,279.6406 Q129.3906,279.9375 128.75,280.0781 Q128.1094,280.2344 127.4063,280.2344 Q124.9063,280.2344 123.5781,278.5938 Q122.2656,276.9375 122.2656,273.8125 Q122.2656,270.6875 123.5781,269.0313 Q124.9063,267.375 127.4063,267.375 Q128.1094,267.375 128.75,267.5313 Q129.4063,267.6875 129.9688,267.9844 L129.9688,270.7031 Q129.3438,270.125 128.75,269.8594 Q128.1563,269.5781 127.5313,269.5781 Q126.1875,269.5781 125.5,270.6563 Q124.8125,271.7188 124.8125,273.8125 Q124.8125,275.9063 125.5,276.9844 Q126.1875,278.0469 127.5313,278.0469 Q128.1563,278.0469 128.75,277.7813 Q129.3438,277.5 129.9688,276.9219 L129.9688,279.6406 Z "/><text fill="#000000" font-family="sans-serif" font-size="12" lengthAdjust="spacingAndGlyphs" textLength="47" x="141" y="278.1543">Injector</text><line style="stroke: #A80036; stroke-width: 1.5;" x1="113" x2="190" y1="290" y2="290"/><line style="stroke: #A80036; stroke-width: 1.5;" x1="113" x2="190" y1="298" y2="298"/><!--MD5=[b6f7ded56bb321fa337f436e6a3c0fce]
class ConcreteServiceA--><rect fill="#FEFECE" filter="url(#fub7cr21xiqd7)" height="48" id="ConcreteServiceA" style="stroke: #A80036; stroke-width: 1.5;" width="142" x="80.5" y="133"/><ellipse cx="95.5" cy="149" fill="#ADD1B2" rx="11" ry="11" style="stroke: #A80036; stroke-width: 1.0;"/><path d="M98.4688,154.6406 Q97.8906,154.9375 97.25,155.0781 Q96.6094,155.2344 95.9063,155.2344 Q93.4063,155.2344 92.0781,153.5938 Q90.7656,151.9375 90.7656,148.8125 Q90.7656,145.6875 92.0781,144.0313 Q93.4063,142.375 95.9063,142.375 Q96.6094,142.375 97.25,142.5313 Q97.9063,142.6875 98.4688,142.9844 L98.4688,145.7031 Q97.8438,145.125 97.25,144.8594 Q96.6563,144.5781 96.0313,144.5781 Q94.6875,144.5781 94,145.6563 Q93.3125,146.7188 93.3125,148.8125 Q93.3125,150.9063 94,151.9844 Q94.6875,153.0469 96.0313,153.0469 Q96.6563,153.0469 97.25,152.7813 Q97.8438,152.5 98.4688,151.9219 L98.4688,154.6406 Z "/><text fill="#000000" font-family="sans-serif" font-size="12" lengthAdjust="spacingAndGlyphs" textLength="110" x="109.5" y="153.1543">ConcreteServiceA</text><line style="stroke: #A80036; stroke-width: 1.5;" x1="81.5" x2="221.5" y1="165" y2="165"/><line style="stroke: #A80036; stroke-width: 1.5;" x1="81.5" x2="221.5" y1="173" y2="173"/><!--MD5=[aff5e1906bca68f680aa412869117986]
class ConcreteServiceB--><rect fill="#FEFECE" filter="url(#fub7cr21xiqd7)" height="48" id="ConcreteServiceB" style="stroke: #A80036; stroke-width: 1.5;" width="142" x="257.5" y="133"/><ellipse cx="272.5" cy="149" fill="#ADD1B2" rx="11" ry="11" style="stroke: #A80036; stroke-width: 1.0;"/><path d="M275.4688,154.6406 Q274.8906,154.9375 274.25,155.0781 Q273.6094,155.2344 272.9063,155.2344 Q270.4063,155.2344 269.0781,153.5938 Q267.7656,151.9375 267.7656,148.8125 Q267.7656,145.6875 269.0781,144.0313 Q270.4063,142.375 272.9063,142.375 Q273.6094,142.375 274.25,142.5313 Q274.9063,142.6875 275.4688,142.9844 L275.4688,145.7031 Q274.8438,145.125 274.25,144.8594 Q273.6563,144.5781 273.0313,144.5781 Q271.6875,144.5781 271,145.6563 Q270.3125,146.7188 270.3125,148.8125 Q270.3125,150.9063 271,151.9844 Q271.6875,153.0469 273.0313,153.0469 Q273.6563,153.0469 274.25,152.7813 Q274.8438,152.5 275.4688,151.9219 L275.4688,154.6406 Z "/><text fill="#000000" font-family="sans-serif" font-size="12" lengthAdjust="spacingAndGlyphs" textLength="110" x="286.5" y="153.1543">ConcreteServiceB</text><line style="stroke: #A80036; stroke-width: 1.5;" x1="258.5" x2="398.5" y1="165" y2="165"/><line style="stroke: #A80036; stroke-width: 1.5;" x1="258.5" x2="398.5" y1="173" y2="173"/><!--MD5=[33795586086ddb903e0a086e4a239bb0]
reverse link Client to Injector--><path d="M40.5,77.1608 C40.5,77.1608 40.5,282 40.5,282 C40.5,282 79.8897,282 111.74,282 " fill="none" id="Client&lt;-Injector" style="stroke: #A80036; stroke-width: 1.0; stroke-dasharray: 7.0,7.0;"/><polygon fill="#A80036" points="40.5,72.1608,36.5,81.1608,40.5,77.1608,44.5,81.1608,40.5,72.1608" style="stroke: #A80036; stroke-width: 1.0;"/><text fill="#000000" font-family="sans-serif" font-size="13" lengthAdjust="spacingAndGlyphs" textLength="34" x="10.5" y="161.5669">inject</text><!--MD5=[152c49a891edea9bc9eac7085828ed1e]
link Client to ServiceA--><path d="M74.1049,48 C74.1049,48 103.959,48 103.959,48 " fill="none" id="Client-&gt;ServiceA" style="stroke: #A80036; stroke-width: 1.0;"/><polygon fill="#A80036" points="108.959,48,99.959,44,103.959,48,99.959,52,108.959,48" style="stroke: #A80036; stroke-width: 1.0;"/><!--MD5=[2c064f4695b0e45dfa6b81fb9ea24611]
link Client to ServiceB--><path d="M40.5,23.5684 C40.5,14.3287 40.5,6 40.5,6 C40.5,6 299.5,6 299.5,6 C299.5,6 299.5,18.5684 299.5,18.5684 " fill="none" id="Client-&gt;ServiceB" style="stroke: #A80036; stroke-width: 1.0;"/><polygon fill="#A80036" points="299.5,23.5684,303.5,14.5684,299.5,18.5684,295.5,14.5684,299.5,23.5684" style="stroke: #A80036; stroke-width: 1.0;"/><!--MD5=[785f198ee2d20ce9f1af2833a90099ac]
reverse link ConcreteServiceA to Injector--><path d="M151.5,186.1013 C151.5,186.1013 151.5,257.9727 151.5,257.9727 " fill="none" id="ConcreteServiceA&lt;-Injector" style="stroke: #A80036; stroke-width: 1.0; stroke-dasharray: 7.0,7.0;"/><polygon fill="#A80036" points="151.5,181.1013,147.5,190.1013,151.5,186.1013,155.5,190.1013,151.5,181.1013" style="stroke: #A80036; stroke-width: 1.0;"/><text fill="#000000" font-family="sans-serif" font-size="13" lengthAdjust="spacingAndGlyphs" textLength="41" x="152.5" y="224.0669">create</text><!--MD5=[c5e2f244b0098d057038360002ed6797]
reverse link ConcreteServiceB to Injector--><path d="M328.5,186.1013 C328.5,186.1013 328.5,282 328.5,282 C328.5,282 243.4077,282 191.2223,282 " fill="none" id="ConcreteServiceB&lt;-Injector" style="stroke: #A80036; stroke-width: 1.0; stroke-dasharray: 7.0,7.0;"/><polygon fill="#A80036" points="328.5,181.1013,324.5,190.1013,328.5,186.1013,332.5,190.1013,328.5,181.1013" style="stroke: #A80036; stroke-width: 1.0;"/><text fill="#000000" font-family="sans-serif" font-size="13" lengthAdjust="spacingAndGlyphs" textLength="41" x="282.5" y="224.0669">create</text><!--MD5=[cf293a7f9bb708e9a9f7f25d589cb634]
reverse link ServiceA to ConcreteServiceA--><path d="M151.5,92.1906 C151.5,92.1906 151.5,132.877 151.5,132.877 " fill="none" id="ServiceA&lt;-ConcreteServiceA" style="stroke: #A80036; stroke-width: 1.0; stroke-dasharray: 7.0,7.0;"/><polygon fill="none" points="144.5001,92.1907,151.5,72.1906,158.5001,92.1906,144.5001,92.1907" style="stroke: #A80036; stroke-width: 1.0;"/><!--MD5=[95d9149a9d452f9998b953594bc07d43]
reverse link ServiceB to ConcreteServiceB--><path d="M299.75,92.1906 C299.75,92.1906 299.75,132.877 299.75,132.877 " fill="none" id="ServiceB&lt;-ConcreteServiceB" style="stroke: #A80036; stroke-width: 1.0; stroke-dasharray: 7.0,7.0;"/><polygon fill="none" points="292.7501,92.1907,299.75,72.1906,306.7501,92.1906,292.7501,92.1907" style="stroke: #A80036; stroke-width: 1.0;"/><!--MD5=[e711d6b2e1d4863fa13ae8c0456d2ee5]
@startuml
skinparam linetype ortho

class Client
interface ServiceA
interface ServiceB
class Injector
class ConcreteServiceA
class ConcreteServiceB

Injector -u.> Client : inject
Client -r-> ServiceA
Client -r-> ServiceB
Injector -u.> ConcreteServiceA : create
Injector -u.> ConcreteServiceB : create
ConcreteServiceA -u.|> ServiceA
ConcreteServiceB -u.|> ServiceB
@enduml

PlantUML version 1.2020.15(Sun Jun 28 13:39:45 CEST 2020)
(GPL source distribution)
Java Runtime: OpenJDK Runtime Environment
JVM: OpenJDK 64-Bit Server VM
Default Encoding: UTF-8
Language: en
Country: US
--></g></svg>