<?xml version="1.0" encoding="UTF-8" standalone="no"?><svg xmlns="http://www.w3.org/2000/svg" xmlns:xlink="http://www.w3.org/1999/xlink" contentScriptType="application/ecmascript" contentStyleType="text/css" height="151px" preserveAspectRatio="none" style="width:500px;height:151px;" version="1.1" viewBox="0 0 500 151" width="500px" zoomAndPan="magnify"><defs><filter height="300%" id="f1qnjgm96odiiq" width="300%" x="-1" y="-1"><feGaussianBlur result="blurOut" stdDeviation="2.0"/><feColorMatrix in="blurOut" result="blurOut2" type="matrix" values="0 0 0 0 0 0 0 0 0 0 0 0 0 0 0 0 0 0 .4 0"/><feOffset dx="4.0" dy="4.0" in="blurOut2" result="blurOut3"/><feBlend in="SourceGraphic" in2="blurOut3" mode="normal"/></filter></defs><g><!--MD5=[0dd7ee7f5891ba0baa5f6008726ddb8f]
cluster Complex system--><polygon fill="#FFFFFF" filter="url(#f1qnjgm96odiiq)" points="16,77,26,67,478,67,478,129,468,139,16,139,16,77" style="stroke: #000000; stroke-width: 1.5;"/><line style="stroke: #000000; stroke-width: 1.5;" x1="468" x2="477" y1="77" y2="68"/><line style="stroke: #000000; stroke-width: 1.5;" x1="16" x2="468" y1="77" y2="77"/><line style="stroke: #000000; stroke-width: 1.5;" x1="468" x2="468" y1="77" y2="139"/><text fill="#000000" font-family="sans-serif" font-size="14" font-weight="bold" lengthAdjust="spacingAndGlyphs" textLength="130" x="178" y="92.9951">Complex system</text><!--MD5=[c0da8a8ef1573589a8e6c56a64cf368e]
class Dummy1--><rect fill="#FEFECE" filter="url(#f1qnjgm96odiiq)" height="32" id="Dummy1" style="stroke: #A80036; stroke-width: 1.5;" width="85" x="384.5" y="99"/><ellipse cx="399.5" cy="115" fill="#ADD1B2" rx="11" ry="11" style="stroke: #A80036; stroke-width: 1.0;"/><path d="M402.4688,120.6406 Q401.8906,120.9375 401.25,121.0781 Q400.6094,121.2344 399.9063,121.2344 Q397.4063,121.2344 396.0781,119.5938 Q394.7656,117.9375 394.7656,114.8125 Q394.7656,111.6875 396.0781,110.0313 Q397.4063,108.375 399.9063,108.375 Q400.6094,108.375 401.25,108.5313 Q401.9063,108.6875 402.4688,108.9844 L402.4688,111.7031 Q401.8438,111.125 401.25,110.8594 Q400.6563,110.5781 400.0313,110.5781 Q398.6875,110.5781 398,111.6563 Q397.3125,112.7188 397.3125,114.8125 Q397.3125,116.9063 398,117.9844 Q398.6875,119.0469 400.0313,119.0469 Q400.6563,119.0469 401.25,118.7813 Q401.8438,118.5 402.4688,117.9219 L402.4688,120.6406 Z "/><text fill="#000000" font-family="sans-serif" font-size="12" lengthAdjust="spacingAndGlyphs" textLength="53" x="413.5" y="119.1543">Dummy1</text><!--MD5=[686a9624dace5cdb350a4826e10ff494]
class Dummy2--><rect fill="#FEFECE" filter="url(#f1qnjgm96odiiq)" height="32" id="Dummy2" style="stroke: #A80036; stroke-width: 1.5;" width="85" x="264.5" y="99"/><ellipse cx="279.5" cy="115" fill="#ADD1B2" rx="11" ry="11" style="stroke: #A80036; stroke-width: 1.0;"/><path d="M282.4688,120.6406 Q281.8906,120.9375 281.25,121.0781 Q280.6094,121.2344 279.9063,121.2344 Q277.4063,121.2344 276.0781,119.5938 Q274.7656,117.9375 274.7656,114.8125 Q274.7656,111.6875 276.0781,110.0313 Q277.4063,108.375 279.9063,108.375 Q280.6094,108.375 281.25,108.5313 Q281.9063,108.6875 282.4688,108.9844 L282.4688,111.7031 Q281.8438,111.125 281.25,110.8594 Q280.6563,110.5781 280.0313,110.5781 Q278.6875,110.5781 278,111.6563 Q277.3125,112.7188 277.3125,114.8125 Q277.3125,116.9063 278,117.9844 Q278.6875,119.0469 280.0313,119.0469 Q280.6563,119.0469 281.25,118.7813 Q281.8438,118.5 282.4688,117.9219 L282.4688,120.6406 Z "/><text fill="#000000" font-family="sans-serif" font-size="12" lengthAdjust="spacingAndGlyphs" textLength="53" x="293.5" y="119.1543">Dummy2</text><!--MD5=[03f3c499bdbff3e936d41b31aeae136d]
class Dummy3--><rect fill="#FEFECE" filter="url(#f1qnjgm96odiiq)" height="32" id="Dummy3" style="stroke: #A80036; stroke-width: 1.5;" width="85" x="144.5" y="99"/><ellipse cx="159.5" cy="115" fill="#ADD1B2" rx="11" ry="11" style="stroke: #A80036; stroke-width: 1.0;"/><path d="M162.4688,120.6406 Q161.8906,120.9375 161.25,121.0781 Q160.6094,121.2344 159.9063,121.2344 Q157.4063,121.2344 156.0781,119.5938 Q154.7656,117.9375 154.7656,114.8125 Q154.7656,111.6875 156.0781,110.0313 Q157.4063,108.375 159.9063,108.375 Q160.6094,108.375 161.25,108.5313 Q161.9063,108.6875 162.4688,108.9844 L162.4688,111.7031 Q161.8438,111.125 161.25,110.8594 Q160.6563,110.5781 160.0313,110.5781 Q158.6875,110.5781 158,111.6563 Q157.3125,112.7188 157.3125,114.8125 Q157.3125,116.9063 158,117.9844 Q158.6875,119.0469 160.0313,119.0469 Q160.6563,119.0469 161.25,118.7813 Q161.8438,118.5 162.4688,117.9219 L162.4688,120.6406 Z "/><text fill="#000000" font-family="sans-serif" font-size="12" lengthAdjust="spacingAndGlyphs" textLength="53" x="173.5" y="119.1543">Dummy3</text><!--MD5=[4fc8273f83307b7d3ded953c05b24631]
class Dummy4--><rect fill="#FEFECE" filter="url(#f1qnjgm96odiiq)" height="32" id="Dummy4" style="stroke: #A80036; stroke-width: 1.5;" width="85" x="24.5" y="99"/><ellipse cx="39.5" cy="115" fill="#ADD1B2" rx="11" ry="11" style="stroke: #A80036; stroke-width: 1.0;"/><path d="M42.4688,120.6406 Q41.8906,120.9375 41.25,121.0781 Q40.6094,121.2344 39.9063,121.2344 Q37.4063,121.2344 36.0781,119.5938 Q34.7656,117.9375 34.7656,114.8125 Q34.7656,111.6875 36.0781,110.0313 Q37.4063,108.375 39.9063,108.375 Q40.6094,108.375 41.25,108.5313 Q41.9063,108.6875 42.4688,108.9844 L42.4688,111.7031 Q41.8438,111.125 41.25,110.8594 Q40.6563,110.5781 40.0313,110.5781 Q38.6875,110.5781 38,111.6563 Q37.3125,112.7188 37.3125,114.8125 Q37.3125,116.9063 38,117.9844 Q38.6875,119.0469 40.0313,119.0469 Q40.6563,119.0469 41.25,118.7813 Q41.8438,118.5 42.4688,117.9219 L42.4688,120.6406 Z "/><text fill="#000000" font-family="sans-serif" font-size="12" lengthAdjust="spacingAndGlyphs" textLength="53" x="53.5" y="119.1543">Dummy4</text><!--MD5=[790e9955d9690e5344ead96b2c38e22e]
class Facade--><rect fill="#FEFECE" filter="url(#f1qnjgm96odiiq)" height="32" id="Facade" style="stroke: #A80036; stroke-width: 1.5;" width="78" x="208" y="7"/><ellipse cx="223" cy="23" fill="#ADD1B2" rx="11" ry="11" style="stroke: #A80036; stroke-width: 1.0;"/><path d="M225.9688,28.6406 Q225.3906,28.9375 224.75,29.0781 Q224.1094,29.2344 223.4063,29.2344 Q220.9063,29.2344 219.5781,27.5938 Q218.2656,25.9375 218.2656,22.8125 Q218.2656,19.6875 219.5781,18.0313 Q220.9063,16.375 223.4063,16.375 Q224.1094,16.375 224.75,16.5313 Q225.4063,16.6875 225.9688,16.9844 L225.9688,19.7031 Q225.3438,19.125 224.75,18.8594 Q224.1563,18.5781 223.5313,18.5781 Q222.1875,18.5781 221.5,19.6563 Q220.8125,20.7188 220.8125,22.8125 Q220.8125,24.9063 221.5,25.9844 Q222.1875,27.0469 223.5313,27.0469 Q224.1563,27.0469 224.75,26.7813 Q225.3438,26.5 225.9688,25.9219 L225.9688,28.6406 Z "/><text fill="#000000" font-family="sans-serif" font-size="12" lengthAdjust="spacingAndGlyphs" textLength="46" x="237" y="27.1543">Facade</text><!--MD5=[90522adddd101b85ff0640a43960c157]
link Facade to Dummy1--><path d="M286.2269,33.8491 C310.3745,41.3732 341.4814,52.6221 367,67 C380.9737,74.8732 395.0566,85.9389 406.0638,95.4617 " fill="none" id="Facade-&gt;Dummy1" style="stroke: #A80036; stroke-width: 1.0;"/><polygon fill="#A80036" points="409.974,98.8915,405.8458,89.9496,406.2152,95.5944,400.5704,95.9637,409.974,98.8915" style="stroke: #A80036; stroke-width: 1.0;"/><!--MD5=[8ed9e8b9782121cddfb378aa7c40b0a8]
link Facade to Dummy2--><path d="M257.4512,39.0252 C267.456,54.3659 282.5986,77.5846 293.5097,94.3149 " fill="none" id="Facade-&gt;Dummy2" style="stroke: #A80036; stroke-width: 1.0;"/><polygon fill="#A80036" points="296.4672,98.8498,294.9012,89.1262,293.7358,94.6618,288.2003,93.4964,296.4672,98.8498" style="stroke: #A80036; stroke-width: 1.0;"/><!--MD5=[c54575b3174cef88b7c20572d28321b6]
link Facade to Dummy3--><path d="M236.5488,39.0252 C226.544,54.3659 211.4014,77.5846 200.4903,94.3149 " fill="none" id="Facade-&gt;Dummy3" style="stroke: #A80036; stroke-width: 1.0;"/><polygon fill="#A80036" points="197.5328,98.8498,205.7997,93.4964,200.2642,94.6618,199.0988,89.1262,197.5328,98.8498" style="stroke: #A80036; stroke-width: 1.0;"/><!--MD5=[dd278814dfc789ed154924210724cbb2]
link Facade to Dummy4--><path d="M207.7731,33.8491 C183.6255,41.3732 152.5186,52.6221 127,67 C113.0263,74.8732 98.9434,85.9389 87.9362,95.4617 " fill="none" id="Facade-&gt;Dummy4" style="stroke: #A80036; stroke-width: 1.0;"/><polygon fill="#A80036" points="84.026,98.8915,93.4296,95.9637,87.7848,95.5944,88.1542,89.9496,84.026,98.8915" style="stroke: #A80036; stroke-width: 1.0;"/><!--MD5=[6ae73aaa005b98fe855d5577b20df842]
@startuml

class Facade

package "Complex system" <<Node>> {
    class Dummy1
    class Dummy2
    class Dummy3
    class Dummy4 
}

hide empty members

Facade - -> Dummy1
Facade - -> Dummy2
Facade - -> Dummy3
Facade - -> Dummy4

@enduml

PlantUML version 1.2020.15(Sun Jun 28 13:39:45 CEST 2020)
(GPL source distribution)
Java Runtime: OpenJDK Runtime Environment
JVM: OpenJDK 64-Bit Server VM
Default Encoding: UTF-8
Language: en
Country: US
--></g></svg>