<?xml version="1.0" encoding="UTF-8" standalone="no"?><svg xmlns="http://www.w3.org/2000/svg" xmlns:xlink="http://www.w3.org/1999/xlink" contentScriptType="application/ecmascript" contentStyleType="text/css" height="733px" preserveAspectRatio="none" style="width:701px;height:733px;" version="1.1" viewBox="0 0 701 733" width="701px" zoomAndPan="magnify"><defs><filter height="300%" id="f1ut2rm8s3jy39" width="300%" x="-1" y="-1"><feGaussianBlur result="blurOut" stdDeviation="2.0"/><feColorMatrix in="blurOut" result="blurOut2" type="matrix" values="0 0 0 0 0 0 0 0 0 0 0 0 0 0 0 0 0 0 .4 0"/><feOffset dx="4.0" dy="4.0" in="blurOut2" result="blurOut3"/><feBlend in="SourceGraphic" in2="blurOut3" mode="normal"/></filter></defs><g><line style="stroke: #A80036; stroke-width: 1.0; stroke-dasharray: 5.0,5.0;" x1="27" x2="27" y1="86.2969" y2="645.8203"/><line style="stroke: #A80036; stroke-width: 1.0; stroke-dasharray: 5.0,5.0;" x1="147.5" x2="147.5" y1="86.2969" y2="645.8203"/><line style="stroke: #A80036; stroke-width: 1.0; stroke-dasharray: 5.0,5.0;" x1="356" x2="356" y1="86.2969" y2="645.8203"/><line style="stroke: #A80036; stroke-width: 1.0; stroke-dasharray: 5.0,5.0;" x1="477" x2="477" y1="86.2969" y2="645.8203"/><line style="stroke: #A80036; stroke-width: 1.0; stroke-dasharray: 5.0,5.0;" x1="600" x2="600" y1="86.2969" y2="645.8203"/><text fill="#000000" font-family="sans-serif" font-size="14" lengthAdjust="spacingAndGlyphs" textLength="32" x="8" y="82.9951">User</text><ellipse cx="27" cy="13" fill="#FEFECE" filter="url(#f1ut2rm8s3jy39)" rx="8" ry="8" style="stroke: #A80036; stroke-width: 2.0;"/><path d="M27,21 L27,48 M14,29 L40,29 M27,48 L14,63 M27,48 L40,63 " fill="none" filter="url(#f1ut2rm8s3jy39)" style="stroke: #A80036; stroke-width: 2.0;"/><text fill="#000000" font-family="sans-serif" font-size="14" lengthAdjust="spacingAndGlyphs" textLength="32" x="8" y="657.8154">User</text><ellipse cx="27" cy="671.1172" fill="#FEFECE" filter="url(#f1ut2rm8s3jy39)" rx="8" ry="8" style="stroke: #A80036; stroke-width: 2.0;"/><path d="M27,679.1172 L27,706.1172 M14,687.1172 L40,687.1172 M27,706.1172 L14,721.1172 M27,706.1172 L40,721.1172 " fill="none" filter="url(#f1ut2rm8s3jy39)" style="stroke: #A80036; stroke-width: 2.0;"/><rect fill="#FEFECE" filter="url(#f1ut2rm8s3jy39)" height="30.2969" style="stroke: #A80036; stroke-width: 1.5;" width="53" x="119.5" y="51"/><text fill="#000000" font-family="sans-serif" font-size="14" lengthAdjust="spacingAndGlyphs" textLength="39" x="126.5" y="70.9951">Client</text><rect fill="#FEFECE" filter="url(#f1ut2rm8s3jy39)" height="30.2969" style="stroke: #A80036; stroke-width: 1.5;" width="53" x="119.5" y="644.8203"/><text fill="#000000" font-family="sans-serif" font-size="14" lengthAdjust="spacingAndGlyphs" textLength="39" x="126.5" y="664.8154">Client</text><rect fill="#FEFECE" filter="url(#f1ut2rm8s3jy39)" height="30.2969" style="stroke: #A80036; stroke-width: 1.5;" width="90" x="309" y="51"/><text fill="#000000" font-family="sans-serif" font-size="14" lengthAdjust="spacingAndGlyphs" textLength="76" x="316" y="70.9951">AuthServer</text><rect fill="#FEFECE" filter="url(#f1ut2rm8s3jy39)" height="30.2969" style="stroke: #A80036; stroke-width: 1.5;" width="90" x="309" y="644.8203"/><text fill="#000000" font-family="sans-serif" font-size="14" lengthAdjust="spacingAndGlyphs" textLength="76" x="316" y="664.8154">AuthServer</text><rect fill="#FEFECE" filter="url(#f1ut2rm8s3jy39)" height="30.2969" style="stroke: #A80036; stroke-width: 1.5;" width="125" x="413" y="51"/><text fill="#000000" font-family="sans-serif" font-size="14" lengthAdjust="spacingAndGlyphs" textLength="111" x="420" y="70.9951">ResourceServer</text><rect fill="#FEFECE" filter="url(#f1ut2rm8s3jy39)" height="30.2969" style="stroke: #A80036; stroke-width: 1.5;" width="125" x="413" y="644.8203"/><text fill="#000000" font-family="sans-serif" font-size="14" lengthAdjust="spacingAndGlyphs" textLength="111" x="420" y="664.8154">ResourceServer</text><rect fill="#FEFECE" filter="url(#f1ut2rm8s3jy39)" height="30.2969" style="stroke: #A80036; stroke-width: 1.5;" width="93" x="552" y="51"/><text fill="#000000" font-family="sans-serif" font-size="14" lengthAdjust="spacingAndGlyphs" textLength="79" x="559" y="70.9951">MapService</text><rect fill="#FEFECE" filter="url(#f1ut2rm8s3jy39)" height="30.2969" style="stroke: #A80036; stroke-width: 1.5;" width="93" x="552" y="644.8203"/><text fill="#000000" font-family="sans-serif" font-size="14" lengthAdjust="spacingAndGlyphs" textLength="79" x="559" y="664.8154">MapService</text><polygon fill="#A80036" points="136,125.9961,146,129.9961,136,133.9961,140,129.9961" style="stroke: #A80036; stroke-width: 1.0;"/><line style="stroke: #A80036; stroke-width: 1.0;" x1="27" x2="142" y1="129.9961" y2="129.9961"/><text fill="#000000" font-family="sans-serif" font-size="13" lengthAdjust="spacingAndGlyphs" textLength="97" x="34" y="124.9302">set color to red</text><path d="M153,101.2969 L153,141.2969 L267,141.2969 L267,111.2969 L257,101.2969 L153,101.2969 " fill="#FBFB77" filter="url(#f1ut2rm8s3jy39)" style="stroke: #A80036; stroke-width: 1.0;"/><path d="M257,101.2969 L257,111.2969 L267,111.2969 L257,101.2969 " fill="#FBFB77" style="stroke: #A80036; stroke-width: 1.0;"/><text fill="#000000" font-family="sans-serif" font-size="13" lengthAdjust="spacingAndGlyphs" textLength="93" x="159" y="118.3638">missing token:</text><text fill="#000000" font-family="sans-serif" font-size="13" lengthAdjust="spacingAndGlyphs" textLength="81" x="159" y="133.4966">authenticate</text><polygon fill="#A80036" points="344,182.8281,354,186.8281,344,190.8281,348,186.8281" style="stroke: #A80036; stroke-width: 1.0;"/><line style="stroke: #A80036; stroke-width: 1.0;" x1="148" x2="350" y1="186.8281" y2="186.8281"/><text fill="#000000" font-family="sans-serif" font-size="13" lengthAdjust="spacingAndGlyphs" textLength="71" x="155" y="166.6294">POST /auth</text><text fill="#000000" font-family="sans-serif" font-size="13" lengthAdjust="spacingAndGlyphs" textLength="184" x="155" y="181.7622">{user:myuser,pass:mypass}</text><polygon fill="#A80036" points="159,216.9609,149,220.9609,159,224.9609,155,220.9609" style="stroke: #A80036; stroke-width: 1.0;"/><line style="stroke: #A80036; stroke-width: 1.0;" x1="153" x2="355" y1="220.9609" y2="220.9609"/><text fill="#000000" font-family="sans-serif" font-size="13" lengthAdjust="spacingAndGlyphs" textLength="178" x="165" y="215.895">{success:true,token:ABCD}</text><path d="M34,199.8281 L34,224.8281 L139,224.8281 L139,209.8281 L129,199.8281 L34,199.8281 " fill="#FBFB77" filter="url(#f1ut2rm8s3jy39)" style="stroke: #A80036; stroke-width: 1.0;"/><path d="M129,199.8281 L129,209.8281 L139,209.8281 L129,199.8281 " fill="#FBFB77" style="stroke: #A80036; stroke-width: 1.0;"/><text fill="#000000" font-family="sans-serif" font-size="13" lengthAdjust="spacingAndGlyphs" textLength="84" x="40" y="216.895">token=ABCD</text><polygon fill="#A80036" points="465.5,281.3594,475.5,285.3594,465.5,289.3594,469.5,285.3594" style="stroke: #A80036; stroke-width: 1.0;"/><line style="stroke: #A80036; stroke-width: 1.0;" x1="148" x2="471.5" y1="285.3594" y2="285.3594"/><text fill="#000000" font-family="sans-serif" font-size="13" lengthAdjust="spacingAndGlyphs" textLength="53" x="155" y="250.0278">PUT /set</text><text fill="#000000" font-family="sans-serif" font-size="13" lengthAdjust="spacingAndGlyphs" textLength="177" x="155" y="265.1606">Authorization: Bearer ABCD</text><text fill="#000000" font-family="sans-serif" font-size="13" lengthAdjust="spacingAndGlyphs" textLength="136" x="155" y="280.2935">{key:color,value:red}</text><line style="stroke: #A80036; stroke-width: 1.0;" x1="477.5" x2="519.5" y1="314.4922" y2="314.4922"/><line style="stroke: #A80036; stroke-width: 1.0;" x1="519.5" x2="519.5" y1="314.4922" y2="327.4922"/><line style="stroke: #A80036; stroke-width: 1.0;" x1="478.5" x2="519.5" y1="327.4922" y2="327.4922"/><polygon fill="#A80036" points="488.5,323.4922,478.5,327.4922,488.5,331.4922,484.5,327.4922" style="stroke: #A80036; stroke-width: 1.0;"/><text fill="#000000" font-family="sans-serif" font-size="13" lengthAdjust="spacingAndGlyphs" textLength="78" x="484.5" y="309.4263">ABCD is fine</text><polygon fill="#A80036" points="588.5,357.625,598.5,361.625,588.5,365.625,592.5,361.625" style="stroke: #A80036; stroke-width: 1.0;"/><line style="stroke: #A80036; stroke-width: 1.0;" x1="477.5" x2="594.5" y1="361.625" y2="361.625"/><text fill="#000000" font-family="sans-serif" font-size="13" lengthAdjust="spacingAndGlyphs" textLength="87" x="484.5" y="356.5591">set color=red</text><path d="M605,340.4922 L605,365.4922 L689,365.4922 L689,350.4922 L679,340.4922 L605,340.4922 " fill="#FBFB77" filter="url(#f1ut2rm8s3jy39)" style="stroke: #A80036; stroke-width: 1.0;"/><path d="M679,340.4922 L679,350.4922 L689,350.4922 L679,340.4922 " fill="#FBFB77" style="stroke: #A80036; stroke-width: 1.0;"/><text fill="#000000" font-family="sans-serif" font-size="13" lengthAdjust="spacingAndGlyphs" textLength="63" x="611" y="357.5591">color=red</text><polygon fill="#A80036" points="159,391.7578,149,395.7578,159,399.7578,155,395.7578" style="stroke: #A80036; stroke-width: 1.0;"/><line style="stroke: #A80036; stroke-width: 1.0;" x1="153" x2="476.5" y1="395.7578" y2="395.7578"/><text fill="#000000" font-family="sans-serif" font-size="13" lengthAdjust="spacingAndGlyphs" textLength="181" x="165" y="390.6919">{success:true,previous:null}</text><polygon fill="#A80036" points="136,420.8906,146,424.8906,136,428.8906,140,424.8906" style="stroke: #A80036; stroke-width: 1.0;"/><line style="stroke: #A80036; stroke-width: 1.0;" x1="27" x2="142" y1="424.8906" y2="424.8906"/><text fill="#000000" font-family="sans-serif" font-size="13" lengthAdjust="spacingAndGlyphs" textLength="56" x="34" y="419.8247">get color</text><polygon fill="#A80036" points="465.5,465.1563,475.5,469.1563,465.5,473.1563,469.5,469.1563" style="stroke: #A80036; stroke-width: 1.0;"/><line style="stroke: #A80036; stroke-width: 1.0;" x1="148" x2="471.5" y1="469.1563" y2="469.1563"/><text fill="#000000" font-family="sans-serif" font-size="13" lengthAdjust="spacingAndGlyphs" textLength="89" x="155" y="448.9575">GET /get/color</text><text fill="#000000" font-family="sans-serif" font-size="13" lengthAdjust="spacingAndGlyphs" textLength="177" x="155" y="464.0903">Authorization: Bearer ABCD</text><line style="stroke: #A80036; stroke-width: 1.0;" x1="477.5" x2="519.5" y1="498.2891" y2="498.2891"/><line style="stroke: #A80036; stroke-width: 1.0;" x1="519.5" x2="519.5" y1="498.2891" y2="511.2891"/><line style="stroke: #A80036; stroke-width: 1.0;" x1="478.5" x2="519.5" y1="511.2891" y2="511.2891"/><polygon fill="#A80036" points="488.5,507.2891,478.5,511.2891,488.5,515.2891,484.5,511.2891" style="stroke: #A80036; stroke-width: 1.0;"/><text fill="#000000" font-family="sans-serif" font-size="13" lengthAdjust="spacingAndGlyphs" textLength="78" x="484.5" y="493.2231">ABCD is fine</text><polygon fill="#A80036" points="588.5,536.4219,598.5,540.4219,588.5,544.4219,592.5,540.4219" style="stroke: #A80036; stroke-width: 1.0;"/><line style="stroke: #A80036; stroke-width: 1.0;" x1="477.5" x2="594.5" y1="540.4219" y2="540.4219"/><text fill="#000000" font-family="sans-serif" font-size="13" lengthAdjust="spacingAndGlyphs" textLength="56" x="484.5" y="535.356">get color</text><polygon fill="#A80036" points="488.5,565.5547,478.5,569.5547,488.5,573.5547,484.5,569.5547" style="stroke: #A80036; stroke-width: 1.0;"/><line style="stroke: #A80036; stroke-width: 1.0;" x1="482.5" x2="599.5" y1="569.5547" y2="569.5547"/><text fill="#000000" font-family="sans-serif" font-size="13" lengthAdjust="spacingAndGlyphs" textLength="21" x="494.5" y="564.4888">red</text><polygon fill="#A80036" points="159,594.6875,149,598.6875,159,602.6875,155,598.6875" style="stroke: #A80036; stroke-width: 1.0;"/><line style="stroke: #A80036; stroke-width: 1.0;" x1="153" x2="476.5" y1="598.6875" y2="598.6875"/><text fill="#000000" font-family="sans-serif" font-size="13" lengthAdjust="spacingAndGlyphs" textLength="160" x="165" y="593.6216">{success:true,value:red}</text><polygon fill="#A80036" points="38,623.8203,28,627.8203,38,631.8203,34,627.8203" style="stroke: #A80036; stroke-width: 1.0;"/><line style="stroke: #A80036; stroke-width: 1.0;" x1="32" x2="147" y1="627.8203" y2="627.8203"/><text fill="#000000" font-family="sans-serif" font-size="13" lengthAdjust="spacingAndGlyphs" textLength="21" x="44" y="622.7544">red</text><!--MD5=[f72e7f3d87ccb3b06aff17e31b0bd0f9]
@startuml

actor User
participant Client
participant AuthServer
participant ResourceServer
participant MapService

User -> Client: set color to red
note right: missing token:\nauthenticate
Client -> AuthServer: POST /auth\n{user:myuser,pass:mypass}
AuthServer-> Client: {success:true,token:ABCD}
note left: token=ABCD

Client -> ResourceServer: PUT /set\nAuthorization: Bearer ABCD\n{key:color,value:red}
ResourceServer -> ResourceServer: ABCD is fine
ResourceServer -> MapService: set color=red
note right: color=red
ResourceServer -> Client: {success:true,previous:null}

User -> Client: get color
Client -> ResourceServer: GET /get/color\nAuthorization: Bearer ABCD
ResourceServer -> ResourceServer: ABCD is fine
ResourceServer -> MapService: get color
MapService -> ResourceServer: red
ResourceServer -> Client: {success:true,value:red}
Client -> User: red

@enduml

PlantUML version 1.2020.15(Sun Jun 28 13:39:45 CEST 2020)
(GPL source distribution)
Java Runtime: OpenJDK Runtime Environment
JVM: OpenJDK 64-Bit Server VM
Default Encoding: UTF-8
Language: en
Country: US
--></g></svg>