<?xml version="1.0" encoding="UTF-8" standalone="no"?><svg xmlns="http://www.w3.org/2000/svg" xmlns:xlink="http://www.w3.org/1999/xlink" contentScriptType="application/ecmascript" contentStyleType="text/css" height="193px" preserveAspectRatio="none" style="width:372px;height:193px;" version="1.1" viewBox="0 0 372 193" width="372px" zoomAndPan="magnify"><defs><filter height="300%" id="f1j4acqy329amr" width="300%" x="-1" y="-1"><feGaussianBlur result="blurOut" stdDeviation="2.0"/><feColorMatrix in="blurOut" result="blurOut2" type="matrix" values="0 0 0 0 0 0 0 0 0 0 0 0 0 0 0 0 0 0 .4 0"/><feOffset dx="4.0" dy="4.0" in="blurOut2" result="blurOut3"/><feBlend in="SourceGraphic" in2="blurOut3" mode="normal"/></filter></defs><g><line style="stroke: #A80036; stroke-width: 1.0; stroke-dasharray: 5.0,5.0;" x1="76" x2="76" y1="38.2969" y2="145.6953"/><line style="stroke: #A80036; stroke-width: 1.0; stroke-dasharray: 5.0,5.0;" x1="204" x2="204" y1="38.2969" y2="145.6953"/><line style="stroke: #A80036; stroke-width: 1.0; stroke-dasharray: 5.0,5.0;" x1="311" x2="311" y1="38.2969" y2="145.6953"/><rect fill="#FEFECE" filter="url(#f1j4acqy329amr)" height="30.2969" style="stroke: #A80036; stroke-width: 1.5;" width="132" x="8" y="3"/><text fill="#000000" font-family="sans-serif" font-size="14" lengthAdjust="spacingAndGlyphs" textLength="118" x="15" y="22.9951">WorkingDirectory</text><rect fill="#FEFECE" filter="url(#f1j4acqy329amr)" height="30.2969" style="stroke: #A80036; stroke-width: 1.5;" width="132" x="8" y="144.6953"/><text fill="#000000" font-family="sans-serif" font-size="14" lengthAdjust="spacingAndGlyphs" textLength="118" x="15" y="164.6904">WorkingDirectory</text><rect fill="#FEFECE" filter="url(#f1j4acqy329amr)" height="30.2969" style="stroke: #A80036; stroke-width: 1.5;" width="97" x="154" y="3"/><text fill="#000000" font-family="sans-serif" font-size="14" lengthAdjust="spacingAndGlyphs" textLength="83" x="161" y="22.9951">StagingArea</text><rect fill="#FEFECE" filter="url(#f1j4acqy329amr)" height="30.2969" style="stroke: #A80036; stroke-width: 1.5;" width="97" x="154" y="144.6953"/><text fill="#000000" font-family="sans-serif" font-size="14" lengthAdjust="spacingAndGlyphs" textLength="83" x="161" y="164.6904">StagingArea</text><rect fill="#FEFECE" filter="url(#f1j4acqy329amr)" height="30.2969" style="stroke: #A80036; stroke-width: 1.5;" width="88" x="265" y="3"/><text fill="#000000" font-family="sans-serif" font-size="14" lengthAdjust="spacingAndGlyphs" textLength="74" x="272" y="22.9951">Repository</text><rect fill="#FEFECE" filter="url(#f1j4acqy329amr)" height="30.2969" style="stroke: #A80036; stroke-width: 1.5;" width="88" x="265" y="144.6953"/><text fill="#000000" font-family="sans-serif" font-size="14" lengthAdjust="spacingAndGlyphs" textLength="74" x="272" y="164.6904">Repository</text><polygon fill="#A80036" points="192.5,65.4297,202.5,69.4297,192.5,73.4297,196.5,69.4297" style="stroke: #A80036; stroke-width: 1.0;"/><line style="stroke: #A80036; stroke-width: 1.0;" x1="76" x2="198.5" y1="69.4297" y2="69.4297"/><text fill="#000000" font-family="sans-serif" font-size="13" lengthAdjust="spacingAndGlyphs" textLength="44" x="83" y="64.3638">git add</text><polygon fill="#A80036" points="299,94.5625,309,98.5625,299,102.5625,303,98.5625" style="stroke: #A80036; stroke-width: 1.0;"/><line style="stroke: #A80036; stroke-width: 1.0;" x1="204.5" x2="305" y1="98.5625" y2="98.5625"/><text fill="#000000" font-family="sans-serif" font-size="13" lengthAdjust="spacingAndGlyphs" textLength="69" x="211.5" y="93.4966">git commit</text><polygon fill="#A80036" points="87,123.6953,77,127.6953,87,131.6953,83,127.6953" style="stroke: #A80036; stroke-width: 1.0;"/><line style="stroke: #A80036; stroke-width: 1.0;" x1="81" x2="310" y1="127.6953" y2="127.6953"/><text fill="#000000" font-family="sans-serif" font-size="13" lengthAdjust="spacingAndGlyphs" textLength="78" x="93" y="122.6294">git checkout</text><!--MD5=[71994b93b8b648fa16711bb6cc35386b]
@startuml

participant WorkingDirectory
participant StagingArea
participant Repository

WorkingDirectory -> StagingArea: git add

StagingArea -> Repository: git commit

Repository -> WorkingDirectory: git checkout

@enduml

PlantUML version 1.2020.15(Sun Jun 28 13:39:45 CEST 2020)
(GPL source distribution)
Java Runtime: OpenJDK Runtime Environment
JVM: OpenJDK 64-Bit Server VM
Default Encoding: UTF-8
Language: en
Country: US
--></g></svg>