<?xml version="1.0" encoding="UTF-8" standalone="no"?><svg xmlns="http://www.w3.org/2000/svg" xmlns:xlink="http://www.w3.org/1999/xlink" contentScriptType="application/ecmascript" contentStyleType="text/css" height="290px" preserveAspectRatio="none" style="width:280px;height:290px;" version="1.1" viewBox="0 0 280 290" width="280px" zoomAndPan="magnify"><defs><filter height="300%" id="f1f1brrdzetspn" width="300%" x="-1" y="-1"><feGaussianBlur result="blurOut" stdDeviation="2.0"/><feColorMatrix in="blurOut" result="blurOut2" type="matrix" values="0 0 0 0 0 0 0 0 0 0 0 0 0 0 0 0 0 0 .4 0"/><feOffset dx="4.0" dy="4.0" in="blurOut2" result="blurOut3"/><feBlend in="SourceGraphic" in2="blurOut3" mode="normal"/></filter></defs><g><!--MD5=[4dfc6a72b8dd60daa1b635d583ff79da]
class Map--><rect fill="#FEFECE" filter="url(#f1f1brrdzetspn)" height="48" id="Map" style="stroke: #A80036; stroke-width: 1.5;" width="74" x="106" y="7"/><ellipse cx="121" cy="23" fill="#B4A7E5" rx="11" ry="11" style="stroke: #A80036; stroke-width: 1.0;"/><path d="M116.9219,18.7656 L116.9219,16.6094 L124.3125,16.6094 L124.3125,18.7656 L121.8438,18.7656 L121.8438,26.8438 L124.3125,26.8438 L124.3125,29 L116.9219,29 L116.9219,26.8438 L119.3906,26.8438 L119.3906,18.7656 L116.9219,18.7656 Z "/><text fill="#000000" font-family="sans-serif" font-size="12" font-style="italic" lengthAdjust="spacingAndGlyphs" textLength="26" x="143" y="27.1543">Map</text><line style="stroke: #A80036; stroke-width: 1.5;" x1="107" x2="179" y1="39" y2="39"/><line style="stroke: #A80036; stroke-width: 1.5;" x1="107" x2="179" y1="47" y2="47"/><!--MD5=[82a1b78fc4eaf0755f18128e01c736c5]
class SortedMap--><rect fill="#FEFECE" filter="url(#f1f1brrdzetspn)" height="48" id="SortedMap" style="stroke: #A80036; stroke-width: 1.5;" width="100" x="161" y="115"/><ellipse cx="176" cy="131" fill="#B4A7E5" rx="11" ry="11" style="stroke: #A80036; stroke-width: 1.0;"/><path d="M171.9219,126.7656 L171.9219,124.6094 L179.3125,124.6094 L179.3125,126.7656 L176.8438,126.7656 L176.8438,134.8438 L179.3125,134.8438 L179.3125,137 L171.9219,137 L171.9219,134.8438 L174.3906,134.8438 L174.3906,126.7656 L171.9219,126.7656 Z "/><text fill="#000000" font-family="sans-serif" font-size="12" font-style="italic" lengthAdjust="spacingAndGlyphs" textLength="68" x="190" y="135.1543">SortedMap</text><line style="stroke: #A80036; stroke-width: 1.5;" x1="162" x2="260" y1="147" y2="147"/><line style="stroke: #A80036; stroke-width: 1.5;" x1="162" x2="260" y1="155" y2="155"/><!--MD5=[0edaf59d72467900525267fa96001854]
class TreeMap--><rect fill="#FEFECE" filter="url(#f1f1brrdzetspn)" height="48" id="TreeMap" style="stroke: #A80036; stroke-width: 1.5;" width="86" x="172" y="223"/><ellipse cx="187" cy="239" fill="#ADD1B2" rx="11" ry="11" style="stroke: #A80036; stroke-width: 1.0;"/><path d="M189.9688,244.6406 Q189.3906,244.9375 188.75,245.0781 Q188.1094,245.2344 187.4063,245.2344 Q184.9063,245.2344 183.5781,243.5938 Q182.2656,241.9375 182.2656,238.8125 Q182.2656,235.6875 183.5781,234.0313 Q184.9063,232.375 187.4063,232.375 Q188.1094,232.375 188.75,232.5313 Q189.4063,232.6875 189.9688,232.9844 L189.9688,235.7031 Q189.3438,235.125 188.75,234.8594 Q188.1563,234.5781 187.5313,234.5781 Q186.1875,234.5781 185.5,235.6563 Q184.8125,236.7188 184.8125,238.8125 Q184.8125,240.9063 185.5,241.9844 Q186.1875,243.0469 187.5313,243.0469 Q188.1563,243.0469 188.75,242.7813 Q189.3438,242.5 189.9688,241.9219 L189.9688,244.6406 Z "/><text fill="#000000" font-family="sans-serif" font-size="12" lengthAdjust="spacingAndGlyphs" textLength="54" x="201" y="243.1543">TreeMap</text><line style="stroke: #A80036; stroke-width: 1.5;" x1="173" x2="257" y1="255" y2="255"/><line style="stroke: #A80036; stroke-width: 1.5;" x1="173" x2="257" y1="263" y2="263"/><!--MD5=[702f122c79729df12a8a52022932f992]
class HashMap--><rect fill="#FEFECE" filter="url(#f1f1brrdzetspn)" height="48" id="HashMap" style="stroke: #A80036; stroke-width: 1.5;" width="90" x="30" y="115"/><ellipse cx="45" cy="131" fill="#ADD1B2" rx="11" ry="11" style="stroke: #A80036; stroke-width: 1.0;"/><path d="M47.9688,136.6406 Q47.3906,136.9375 46.75,137.0781 Q46.1094,137.2344 45.4063,137.2344 Q42.9063,137.2344 41.5781,135.5938 Q40.2656,133.9375 40.2656,130.8125 Q40.2656,127.6875 41.5781,126.0313 Q42.9063,124.375 45.4063,124.375 Q46.1094,124.375 46.75,124.5313 Q47.4063,124.6875 47.9688,124.9844 L47.9688,127.7031 Q47.3438,127.125 46.75,126.8594 Q46.1563,126.5781 45.5313,126.5781 Q44.1875,126.5781 43.5,127.6563 Q42.8125,128.7188 42.8125,130.8125 Q42.8125,132.9063 43.5,133.9844 Q44.1875,135.0469 45.5313,135.0469 Q46.1563,135.0469 46.75,134.7813 Q47.3438,134.5 47.9688,133.9219 L47.9688,136.6406 Z "/><text fill="#000000" font-family="sans-serif" font-size="12" lengthAdjust="spacingAndGlyphs" textLength="58" x="59" y="135.1543">HashMap</text><line style="stroke: #A80036; stroke-width: 1.5;" x1="31" x2="119" y1="147" y2="147"/><line style="stroke: #A80036; stroke-width: 1.5;" x1="31" x2="119" y1="155" y2="155"/><!--MD5=[e928cae19194615c2f3ae7408c14265d]
class LinkedHashMap--><rect fill="#FEFECE" filter="url(#f1f1brrdzetspn)" height="48" id="LinkedHashMap" style="stroke: #A80036; stroke-width: 1.5;" width="130" x="7" y="223"/><ellipse cx="22" cy="239" fill="#ADD1B2" rx="11" ry="11" style="stroke: #A80036; stroke-width: 1.0;"/><path d="M24.9688,244.6406 Q24.3906,244.9375 23.75,245.0781 Q23.1094,245.2344 22.4063,245.2344 Q19.9063,245.2344 18.5781,243.5938 Q17.2656,241.9375 17.2656,238.8125 Q17.2656,235.6875 18.5781,234.0313 Q19.9063,232.375 22.4063,232.375 Q23.1094,232.375 23.75,232.5313 Q24.4063,232.6875 24.9688,232.9844 L24.9688,235.7031 Q24.3438,235.125 23.75,234.8594 Q23.1563,234.5781 22.5313,234.5781 Q21.1875,234.5781 20.5,235.6563 Q19.8125,236.7188 19.8125,238.8125 Q19.8125,240.9063 20.5,241.9844 Q21.1875,243.0469 22.5313,243.0469 Q23.1563,243.0469 23.75,242.7813 Q24.3438,242.5 24.9688,241.9219 L24.9688,244.6406 Z "/><text fill="#000000" font-family="sans-serif" font-size="12" lengthAdjust="spacingAndGlyphs" textLength="98" x="36" y="243.1543">LinkedHashMap</text><line style="stroke: #A80036; stroke-width: 1.5;" x1="8" x2="136" y1="255" y2="255"/><line style="stroke: #A80036; stroke-width: 1.5;" x1="8" x2="136" y1="263" y2="263"/><!--MD5=[28c41f865e47ba111c9af5d19c30c58e]
reverse link Map to SortedMap--><path d="M170.5,75.2373 C170.5,75.2373 170.5,114.8436 170.5,114.8436 " fill="none" id="Map&lt;-SortedMap" style="stroke: #A80036; stroke-width: 1.0;"/><polygon fill="none" points="163.5001,75.2373,170.5,55.2373,177.5001,75.2373,163.5001,75.2373" style="stroke: #A80036; stroke-width: 1.0;"/><!--MD5=[3352ba51431abb4aeca3f468df552c4f]
reverse link SortedMap to TreeMap--><path d="M215,183.2373 C215,183.2373 215,222.8436 215,222.8436 " fill="none" id="SortedMap&lt;-TreeMap" style="stroke: #A80036; stroke-width: 1.0; stroke-dasharray: 7.0,7.0;"/><polygon fill="none" points="208.0001,183.2373,215,163.2373,222.0001,183.2373,208.0001,183.2373" style="stroke: #A80036; stroke-width: 1.0;"/><!--MD5=[88ef7a2e478d2be745fa043201b4c4af]
reverse link Map to HashMap--><path d="M113,75.2373 C113,75.2373 113,114.8436 113,114.8436 " fill="none" id="Map&lt;-HashMap" style="stroke: #A80036; stroke-width: 1.0; stroke-dasharray: 7.0,7.0;"/><polygon fill="none" points="106.0001,75.2373,113,55.2373,120.0001,75.2373,106.0001,75.2373" style="stroke: #A80036; stroke-width: 1.0;"/><!--MD5=[37a91363259b574b7489e4ec0747892e]
reverse link HashMap to LinkedHashMap--><path d="M75,183.2373 C75,183.2373 75,222.8436 75,222.8436 " fill="none" id="HashMap&lt;-LinkedHashMap" style="stroke: #A80036; stroke-width: 1.0;"/><polygon fill="none" points="68.0001,183.2373,75,163.2373,82.0001,183.2373,68.0001,183.2373" style="stroke: #A80036; stroke-width: 1.0;"/><!--MD5=[f83f4162006b21c807bd28a26b69c650]
@startuml

skinparam linetype ortho

interface "  Map  " as Map
interface SortedMap
class TreeMap
class HashMap
class LinkedHashMap

SortedMap -u-|> Map
TreeMap -u.|> SortedMap
HashMap -u.|> Map
LinkedHashMap -u-|> HashMap

@enduml

PlantUML version 1.2020.15(Sun Jun 28 13:39:45 CEST 2020)
(GPL source distribution)
Java Runtime: OpenJDK Runtime Environment
JVM: OpenJDK 64-Bit Server VM
Default Encoding: UTF-8
Language: en
Country: US
--></g></svg>